[
  {
    "id": "user",
    "label": "User Name",
    "type": "TextField",
    "helper": "Please enter your name here",
    "default": ""
  },
  {
    "id": "pass",
    "label": "Password",
    "type": "Password",
    "helper": "Please enter your password here",
    "default": ""
  },
  {
    "id": "pass2",
    "label": "Password",
    "type": "Password",
    "helper": "Please enter your password again",
    "default": ""
  },
  {
    "id": "sex",
    "label": "Sex",
    "type": "Select",
    "helper": "Please select your gender",
    "options": [
      { "value": "male", "label": "Male" },
      { "value": "female", "label": "Female" }
    ],
    "default": "male"
  },
  {
    "id": "agree",
    "label": "I agree with terms of service",
    "type": "CheckBox",
    "default": false
  },
  {
    "id": "gender",
    "label": "Gender",
    "type": "RadioGroup",
    "helper": "Please select your gender",
    "options": [
      { "value": "male", "label": "Male" },
      { "value": "female", "label": "Female" }
    ],
    "default": "male"
  }
]
